%YAML 1.1
%TAG !u! tag:unity3d.com,2011:
--- !u!21 &2100000
Material:
  serializedVersion: 6
  m_ObjectHideFlags: 0
  m_CorrespondingSourceObject: {fileID: 0}
  m_PrefabInstance: {fileID: 0}
  m_PrefabAsset: {fileID: 0}
  m_Name: OxygenField
  m_Shader: {fileID: -6465566751694194690, guid: ac3101dcf500c574ebdb956b6bf2b655,
    type: 3}
  m_ShaderKeywords: 
  m_LightmapFlags: 4
  m_EnableInstancingVariants: 0
  m_DoubleSidedGI: 0
  m_CustomRenderQueue: -1
  stringTagMap: {}
  disabledShaderPasses: []
  m_SavedProperties:
    serializedVersion: 3
    m_TexEnvs:
    - Texture2D_3158CF18:
        m_Texture: {fileID: 2800000, guid: 7779806873cf39743802bfb7c55746ea, type: 3}
        m_Scale: {x: 1, y: 1}
        m_Offset: {x: 0, y: 0}
    m_Floats:
    - Vector1_4F9C038D: 0.05
    - Vector1_7B87E38C: 0.1
    - Vector1_85B0B1E5: 2
    - Vector1_EBC5D1F9: -2
    - Vector1_FCEE1351: 0.42
    m_Colors:
    - Color_E65A2948: {r: 0.10770043, g: 0.36618146, b: 2.0570781, a: 0}
